Get data from — ons_get • onsr
…
      version
      `[version]`

      ons_read
      `[ons_read]`

      ...
      Further arguments passed on the reading functions.

    Examples

ons_get(id = "cpih01", edition = "time-series", version = 5)

#> # A tibble: 55,977 x 7
#>     v4_0 `mmm-yy` Time   `uk-only` Geography  cpih1dim1aggid Aggregate          
#>    <dbl> <chr>    <chr>  <chr>     <chr>      <chr>          <chr>              
#>  1  90.9 Jul-11   Jul-11 K02000001 United Ki… cpih1dim1G110… 11.1 Catering serv…
#>  2  68.7 Feb-98   Feb-98 K02000001 United Ki… cpih1dim1S101… 01.1.2 Meat        
#>  3  94.9 Mar-12   Mar-12 K02000001 United Ki… cpih1dim1S802… 08.2.0 Telephone a…
#>  4  84.9 Aug-93   Aug-93 K02000001 United Ki… cpih1dim1S120… 12.1.2/3 Appliance…
#>  5 102.  Dec-12   Dec-12 K02000001 United Ki… cpih1dim1S502… 05.2.0 Household T…
#>  6  91.4 Apr-91   Apr-91 K02000001 United Ki… cpih1dim1S903… 09.3.3 Gardens, pl…
#>  7   0   Jun-96   Jun-96 K02000001 United Ki… cpih1dim1S120… 12.4.0 Social Prot…
#>  8 108.  Mar-03   Mar-03 K02000001 United Ki… cpih1dim1S502… 05.2.0 Household T…
#>  9  30.8 May-96   May-96 K02000001 United Ki… cpih1dim1G202… 02.2 Tobacco       
#> 10  85.3 Jun-99   Jun-99 K02000001 United Ki… cpih1dim1G505… 05.5 Tools and equ…
#> # … with 55,967 more rows

ons_get(id = "cpih01", edition = "time-series")

#> # A tibble: 55,305 x 7
#>     v4_0 `mmm-yy` Time   `uk-only` Geography  cpih1dim1aggid Aggregate          
#>    <dbl> <chr>    <chr>  <chr>     <chr>      <chr>          <chr>              
#>  1  83.9 May-03   May-03 K02000001 United Ki… cpih1dim1G402… 04.2.0 Owner Occup…
#>  2  54.7 May-96   May-96 K02000001 United Ki… cpih1dim1G110… 11.1 Catering serv…
#>  3  68.5 Aug-99   Aug-99 K02000001 United Ki… cpih1dim1S101… 01.1.2 Meat        
#>  4  60.5 Feb-00   Feb-00 K02000001 United Ki… cpih1dim1S702… 07.2.4 Other servi…
#>  5  81.4 Oct-89   Oct-89 K02000001 United Ki… cpih1dim1S903… 09.3.3 Gardens, pl…
#>  6 100.  Sep-15   Sep-15 K02000001 United Ki… cpih1dim1S120… 12.6.2 Other finan…
#>  7 116.  May-00   May-00 K02000001 United Ki… cpih1dim1G903… 09.3 Other recreat…
#>  8  99.5 Aug-17   Aug-17 K02000001 United Ki… cpih1dim1S302… 03.2.0 Footwear in…
#>  9  38   Mar-04   Mar-04 K02000001 United Ki… cpih1dim1G100… 10.0 Education     
#> 10  87.3 Mar-95   Mar-95 K02000001 United Ki… cpih1dim1S120… 12.1.2/3 Appliance…
#> # … with 55,295 more rows

ons_get(id = "ageing-population-estimates", edition = "time-series", version = 1)

#> # A tibble: 18,960 x 12
#>     V4_1 `Data Marking` `calendar-years`  Time `administrative-… Geography sex  
#>    <dbl> <chr>                     <dbl> <dbl> <chr>             <chr>     <chr>
#>  1    NA .                          2019  2019 E08000008         Tameside  fema…
#>  2    NA .                          2019  2019 E12000009         South We… fema…
#>  3 83288 NA                         2019  2019 E08000006         Salford   fema…
#>  4    NA .                          2019  2019 W92000004         Wales     male 
#>  5    NA .                          2019  2019 E07000166         Richmond… all  
#>  6 55635 NA                         2019  2019 E06000034         Thurrock  fema…
#>  7 14437 NA                         2019  2019 E07000108         Dover     fema…
#>  8 10736 NA                         2019  2019 E07000131         Harborou… fema…
#>  9 12646 NA                         2019  2019 E07000106         Canterbu… fema…
#> 10  9450 NA                         2019  2019 E07000237         Worcester fema…
#> # … with 18,950 more rows, and 5 more variables: Sex <chr>, age-groups <chr>,
#> #   AgeGroups <chr>, unit-of-measure <chr>, UnitOfMeasure <chr>
ons_get(id = "ageing-population-estimates")

#> # A tibble: 18,960 x 12
#>     V4_1 `Data Marking` `calendar-years`  Time `administrative-… Geography sex  
#>    <dbl> <chr>                     <dbl> <dbl> <chr>             <chr>     <chr>
#>  1    NA .                          2019  2019 E08000008         Tameside  fema…
#>  2    NA .                          2019  2019 E12000009         South We… fema…
#>  3 83288 NA                         2019  2019 E08000006         Salford   fema…
#>  4    NA .                          2019  2019 W92000004         Wales     male 
#>  5    NA .                          2019  2019 E07000166         Richmond… all  
#>  6 55635 NA                         2019  2019 E06000034         Thurrock  fema…
#>  7 14437 NA                         2019  2019 E07000108         Dover     fema…
#>  8 10736 NA                         2019  2019 E07000131         Harborou… fema…
#>  9 12646 NA                         2019  2019 E07000106         Canterbu… fema…
#> 10  9450 NA                         2019  2019 E07000237         Worcester fema…
#> # … with 18,950 more rows, and 5 more variables: Sex <chr>, age-groups <chr>,
#> #   AgeGroups <chr>, unit-of-measure <chr>, UnitOfMeasure <chr>
…
