ONS Datasets — ons_datasets • onsr
…
ons_datasets()

ons_ids()

    Value

    A tibble with the datasets.

    Examples

# \donttest{
# Find all the information about the data
ons_datasets()
#> # A tibble: 44 × 17
#>    contacts  description  id    keywords links$editions$… $latest_version… $$id 
#>    <list>    <chr>        <chr> <list>   <chr>            <chr>            <chr>
#>  1 <df [1 ×… "Seasonally… well… <chr [1… https://api.bet… https://api.bet… 3    
#>  2 <df [1 ×… "Estimates … well… <chr [1… https://api.bet… https://api.bet… 2    
#>  3 <df [1 ×… "Provisiona… week… <chr [2… https://api.bet… https://api.bet… 68   
#>  4 <df [1 ×… "Provisiona… week… <chr [2… https://api.bet… https://api.bet… 1    
#>  5 <df [1 ×… "Provisiona… week… <chr [2… https://api.bet… https://api.bet… 1    
#>  6 <df [1 ×… "Provisiona… week… <chr [2… https://api.bet… https://api.bet… 68   
#>  7 <df [1 ×… "These data… uk-s… <NULL>   https://api.bet… https://api.bet… 13   
#>  8 <df [1 ×… "Experiment… traf… <NULL>   https://api.bet… https://api.bet… 20   
#>  9 <df [1 ×… "Country by… trade <chr [1… https://api.bet… https://api.bet… 16   
#> 10 <df [1 ×… "Estimates … tax-… <NULL>   https://api.bet… https://api.bet… 2    
#> # … with 34 more rows, and 12 more variables: methodologies <list>,
#> #   next_release <chr>, qmi <tibble[,1]>, related_datasets <list>,
#> #   release_frequency <chr>, state <chr>, title <chr>,
#> #   national_statistic <lgl>, type <chr>, unit_of_measure <chr>,
#> #   publications <list>, license <chr>
…
